<svg width="10" height="16" viewBox="0 0 10 16" fill="none" xmlns="http://www.w3.org/2000/svg">
<path d="M0.55531 7.37568L7.67551 0.255608C7.84019 0.090796 8.06003 0 8.29443 0C8.52884 0 8.74867 0.090796 8.91336 0.255608L9.43771 0.779831C9.77891 1.12142 9.77891 1.6766 9.43771 2.01767L3.4587 7.99668L9.44434 13.9823C9.60903 14.1471 9.69995 14.3668 9.69995 14.6011C9.69995 14.8357 9.60903 15.0554 9.44434 15.2203L8.91999 15.7444C8.75518 15.9092 8.53547 16 8.30107 16C8.06666 16 7.84683 15.9092 7.68215 15.7444L0.55531 8.61782C0.390238 8.45248 0.299573 8.23174 0.300093 7.99707C0.299573 7.7615 0.390238 7.54088 0.55531 7.37568Z" fill="#111111"/>
</svg>
