<svg width="16" height="16" viewBox="0 0 16 16" fill="none" xmlns="http://www.w3.org/2000/svg">
<path d="M5.8295 8.8271C5.8295 8.62667 5.66693 8.46429 5.46634 8.46429H4.19903C3.99866 8.46429 3.83606 8.62667 3.83606 8.8271V10.0942C3.83606 10.2949 3.99866 10.4574 4.19903 10.4574H5.46634C5.66693 10.4574 5.8295 10.2949 5.8295 10.0942V8.8271Z" fill="#74788D"/>
<path d="M8.99665 8.8271C8.99665 8.62667 8.83405 8.46429 8.63385 8.46429H7.36638C7.16602 8.46429 7.00342 8.62667 7.00342 8.8271V10.0942C7.00342 10.2949 7.16602 10.4574 7.36638 10.4574H8.63385C8.83405 10.4574 8.99665 10.2949 8.99665 10.0942V8.8271Z" fill="#74788D"/>
<path d="M12.164 8.8271C12.164 8.62667 12.0014 8.46429 11.801 8.46429H10.5337C10.3331 8.46429 10.1705 8.62667 10.1705 8.8271V10.0942C10.1705 10.2949 10.3331 10.4574 10.5337 10.4574H11.801C12.0014 10.4574 12.164 10.2949 12.164 10.0942V8.8271Z" fill="#74788D"/>
<path d="M5.8295 11.9946C5.8295 11.7938 5.66693 11.6316 5.46634 11.6316H4.19903C3.99866 11.6316 3.83606 11.7938 3.83606 11.9946V13.2615C3.83606 13.4621 3.99866 13.6245 4.19903 13.6245H5.46634C5.66693 13.6245 5.8295 13.462 5.8295 13.2615V11.9946Z" fill="#74788D"/>
<path d="M8.99665 11.9946C8.99665 11.7938 8.83405 11.6316 8.63385 11.6316H7.36638C7.16602 11.6316 7.00342 11.7938 7.00342 11.9946V13.2615C7.00342 13.4621 7.16602 13.6245 7.36638 13.6245H8.63385C8.83405 13.6245 8.99665 13.462 8.99665 13.2615V11.9946Z" fill="#74788D"/>
<path d="M12.164 11.9946C12.164 11.7938 12.0014 11.6316 11.8012 11.6316H10.5337C10.3331 11.6316 10.1705 11.7938 10.1705 11.9946V13.2615C10.1705 13.4621 10.3331 13.6245 10.5337 13.6245H11.8012C12.0014 13.6245 12.164 13.462 12.164 13.2615V11.9946Z" fill="#74788D"/>
<path d="M14.4301 1.78155V3.71701C14.4301 4.59182 13.7204 5.29679 12.8457 5.29679H11.8463C10.9715 5.29679 10.2524 4.59182 10.2524 3.71701V1.7746H5.7476V3.71701C5.7476 4.59182 5.02854 5.29679 4.15393 5.29679H3.15428C2.27963 5.29679 1.56998 4.59182 1.56998 3.71701V1.78155C0.805533 1.80459 0.177368 2.43715 0.177368 3.21464V14.5574C0.177368 15.3495 0.819398 16.0001 1.61151 16.0001H14.3885C15.1794 16.0001 15.8227 15.3482 15.8227 14.5574V3.21464C15.8227 2.43715 15.1945 1.80459 14.4301 1.78155ZM13.9659 13.8511C13.9659 14.1934 13.6883 14.4711 13.3459 14.4711H2.62687C2.28442 14.4711 2.00686 14.1934 2.00686 13.8511V7.99212C2.00686 7.64967 2.28438 7.37195 2.62687 7.37195H13.3458C13.6883 7.37195 13.9658 7.64967 13.9658 7.99212L13.9659 13.8511Z" fill="#74788D"/>
<path d="M3.15079 4.25917H4.1394C4.43947 4.25917 4.68278 4.01622 4.68278 3.71615V0.543208C4.68278 0.243105 4.43947 0 4.1394 0H3.15079C2.85069 0 2.60742 0.243105 2.60742 0.543208V3.71615C2.60742 4.01622 2.85069 4.25917 3.15079 4.25917Z" fill="#74788D"/>
<path d="M11.8335 4.25917H12.8221C13.122 4.25917 13.3653 4.01622 13.3653 3.71615V0.543208C13.3653 0.243105 13.122 0 12.8221 0H11.8335C11.5335 0 11.2902 0.243105 11.2902 0.543208V3.71615C11.2902 4.01622 11.5335 4.25917 11.8335 4.25917Z" fill="#74788D"/>
</svg>
